# Mou Colours

## Colours From Mou Fresh Air

* Negro : #000
* Brillante Black : #586E75
* Rojo : #DC322F
* Verde : #238C00
* Amarillo : #CB4B16
* Azul : #4E289A
* Brillante Azul : #6C71C4
* Magenta : #CF019A
* Brillante Magenta : #F94F92 
* Cyan : #268BD2
* Blanco : #93A1A1
* Cursor : #586E75
* Selección : #4E279A




